{
    "niv": {
        "branch": "master",
        "description": "Easy dependency management for Nix projects",
        "homepage": "https://github.com/nmattia/niv",
        "owner": "nmattia",
        "repo": "niv",
        "rev": "af958e8057f345ee1aca714c1247ef3ba1c15f5e",
        "sha256": "1qjavxabbrsh73yck5dcq8jggvh3r2jkbr6b5nlz5d9yrqm9255n",
        "type": "tarball",
        "url": "https://github.com/nmattia/niv/archive/af958e8057f345ee1aca714c1247ef3ba1c15f5e.tar.gz",
        "url_template": "https://github.com/<owner>/<repo>/archive/<rev>.tar.gz"
    },
    "nixpkgs": {
        "branch": "nixpkgs-unstable",
        "description": "Nix Packages collection",
        "homepage": "",
        "owner": "NixOS",
        "repo": "nixpkgs",
        "rev": "66e66b9d481386f4c7a6b998f32ce794af0182ae",
        "sha256": "1zw3ib0705n7nskv9a2ipj1z0ys4wn2j8frnzhf1gx1yrgyjm8sn",
        "type": "tarball",
        "url": "https://github.com/NixOS/nixpkgs/archive/66e66b9d481386f4c7a6b998f32ce794af0182ae.tar.gz",
        "url_template": "https://github.com/<owner>/<repo>/archive/<rev>.tar.gz"
    },
    "poetry2nix": {
        "branch": "1.15.2",
        "description": "Convert poetry projects to nix automagically [maintainer=@adisbladis] ",
        "homepage": "",
        "owner": "nix-community",
        "repo": "poetry2nix",
        "rev": "ba87b799f8dda4583aac69524579c7f763664363",
        "sha256": "1pfa85604v75p1rzfin3pzx2rnnvs9aixz1y7r3k0p3ik8jqmy71",
        "type": "tarball",
        "url": "https://github.com/nix-community/poetry2nix/archive/ba87b799f8dda4583aac69524579c7f763664363.tar.gz",
        "url_template": "https://github.com/<owner>/<repo>/archive/<rev>.tar.gz"
    }
}
